An Analysis of the evolution of the Covid-19 pandemic
…
## # A tibble: 997 × 3
## # Groups:   stringency_category [2]
##    stringency_category date       mean_new_cases
##    <chr>               <date>              <dbl>
##  1 High                2020-01-16          NaN  
##  2 High                2020-01-17          NaN  
##  3 High                2020-01-18          NaN  
##  4 High                2020-01-19          NaN  
##  5 High                2020-01-20          NaN  
##  6 High                2020-01-21          NaN  
##  7 High                2020-01-22            0  
##  8 High                2020-01-23           26.5
##  9 High                2020-01-24           71.7
## 10 High                2020-01-25           98.6
## # ℹ 987 more rows
